\relax 
\providecommand\hyper@newdestlabel[2]{}
\providecommand\HyperFirstAtBeginDocument{\AtBeginDocument}
\HyperFirstAtBeginDocument{\ifx\hyper@anchor\@undefined
\global\let\oldcontentsline\contentsline
\gdef\contentsline#1#2#3#4{\oldcontentsline{#1}{#2}{#3}}
\global\let\oldnewlabel\newlabel
\gdef\newlabel#1#2{\newlabelxx{#1}#2}
\gdef\newlabelxx#1#2#3#4#5#6{\oldnewlabel{#1}{{#2}{#3}}}
\AtEndDocument{\ifx\hyper@anchor\@undefined
\let\contentsline\oldcontentsline
\let\newlabel\oldnewlabel
\fi}
\fi}
\global\let\hyper@last\relax 
\gdef\HyperFirstAtBeginDocument#1{#1}
\providecommand\HyField@AuxAddToFields[1]{}
\providecommand\HyField@AuxAddToCoFields[2]{}
\abx@aux@refcontext{none/global//global/global}
\@writefile{toc}{\acswitchoff }
\@writefile{lof}{\acswitchoff }
\@writefile{lot}{\acswitchoff }
\abx@aux@cite{0}{knapp1970cavitation}
\abx@aux@segm{0}{0}{knapp1970cavitation}
\abx@aux@cite{0}{brennen1995cavitation}
\abx@aux@segm{0}{0}{brennen1995cavitation}
\abx@aux@cite{0}{Lauterborn_Bolle_1975}
\abx@aux@segm{0}{0}{Lauterborn_Bolle_1975}
\abx@aux@cite{0}{doi:10.1126/science.253.5026.1397}
\abx@aux@segm{0}{0}{doi:10.1126/science.253.5026.1397}
\abx@aux@cite{0}{10.1115/1.4049933}
\abx@aux@segm{0}{0}{10.1115/1.4049933}
\abx@aux@cite{0}{XIONG2022105899}
\abx@aux@segm{0}{0}{XIONG2022105899}
\abx@aux@cite{0}{Franc2004265}
\abx@aux@segm{0}{0}{Franc2004265}
\abx@aux@cite{0}{karimi1986cavitation}
\abx@aux@segm{0}{0}{karimi1986cavitation}
\abx@aux@cite{0}{Pereira1998}
\abx@aux@segm{0}{0}{Pereira1998}
\abx@aux@cite{0}{Zhang20153579}
\abx@aux@segm{0}{0}{Zhang20153579}
\abx@aux@cite{0}{Ahmed2023}
\abx@aux@segm{0}{0}{Ahmed2023}
\abx@aux@cite{0}{Ahmed20138}
\abx@aux@segm{0}{0}{Ahmed20138}
\abx@aux@cite{0}{Frenk199481}
\abx@aux@segm{0}{0}{Frenk199481}
\abx@aux@cite{0}{Song1997291}
\abx@aux@segm{0}{0}{Song1997291}
\abx@aux@cite{0}{McIntyre1979105}
\abx@aux@segm{0}{0}{McIntyre1979105}
\abx@aux@cite{0}{Xu2024}
\abx@aux@segm{0}{0}{Xu2024}
\abx@aux@cite{0}{Gao2024}
\abx@aux@segm{0}{0}{Gao2024}
\abx@aux@cite{0}{Teles2024}
\abx@aux@segm{0}{0}{Teles2024}
\abx@aux@cite{0}{Sotoodeh2023929}
\abx@aux@segm{0}{0}{Sotoodeh2023929}
\abx@aux@cite{0}{Song2019}
\abx@aux@segm{0}{0}{Song2019}
\abx@aux@cite{0}{Ding201797}
\abx@aux@segm{0}{0}{Ding201797}
\abx@aux@cite{0}{Ashworth1999243}
\abx@aux@segm{0}{0}{Ashworth1999243}
\abx@aux@cite{0}{Opris2007581}
\abx@aux@segm{0}{0}{Opris2007581}
\abx@aux@cite{0}{Engqvist2000219}
\abx@aux@segm{0}{0}{Engqvist2000219}
\abx@aux@cite{0}{Antony198352}
\abx@aux@segm{0}{0}{Antony198352}
\abx@aux@cite{0}{Crook1992766}
\abx@aux@segm{0}{0}{Crook1992766}
\abx@aux@cite{0}{Desai198489}
\abx@aux@segm{0}{0}{Desai198489}
\abx@aux@cite{0}{Yang1995196}
\abx@aux@segm{0}{0}{Yang1995196}
\abx@aux@cite{0}{DeMolVanOtterloo19971225}
\abx@aux@segm{0}{0}{DeMolVanOtterloo19971225}
\abx@aux@cite{0}{Frenk199481}
\abx@aux@segm{0}{0}{Frenk199481}
\abx@aux@cite{0}{Ahmed20138}
\abx@aux@segm{0}{0}{Ahmed20138}
\abx@aux@cite{0}{Yu2007586}
\abx@aux@segm{0}{0}{Yu2007586}
\abx@aux@cite{0}{KRELL2020203138}
\abx@aux@segm{0}{0}{KRELL2020203138}
\abx@aux@cite{0}{Yu2007586}
\abx@aux@segm{0}{0}{Yu2007586}
\abx@aux@cite{0}{KRELL2020203138}
\abx@aux@segm{0}{0}{KRELL2020203138}
\abx@aux@cite{0}{Wang2023}
\abx@aux@segm{0}{0}{Wang2023}
\abx@aux@cite{0}{Szala2022741}
\abx@aux@segm{0}{0}{Szala2022741}
\abx@aux@cite{0}{Mitelea2022967}
\abx@aux@segm{0}{0}{Mitelea2022967}
\abx@aux@cite{0}{Liu2022}
\abx@aux@segm{0}{0}{Liu2022}
\abx@aux@cite{0}{Sun2021}
\abx@aux@segm{0}{0}{Sun2021}
\abx@aux@cite{0}{Szala2021}
\abx@aux@segm{0}{0}{Szala2021}
\abx@aux@cite{0}{Zhang2021}
\abx@aux@segm{0}{0}{Zhang2021}
\abx@aux@cite{0}{Mutascu2019776}
\abx@aux@segm{0}{0}{Mutascu2019776}
\abx@aux@cite{0}{Kovalenko2019175}
\abx@aux@segm{0}{0}{Kovalenko2019175}
\abx@aux@cite{0}{E201890}
\abx@aux@segm{0}{0}{E201890}
\abx@aux@cite{0}{Ciubotariu2016154}
\abx@aux@segm{0}{0}{Ciubotariu2016154}
\abx@aux@cite{0}{Singh201487}
\abx@aux@segm{0}{0}{Singh201487}
\abx@aux@cite{0}{Hattor2014257}
\abx@aux@segm{0}{0}{Hattor2014257}
\abx@aux@cite{0}{Depczynski20131045}
\abx@aux@segm{0}{0}{Depczynski20131045}
\abx@aux@cite{0}{Singh2012498}
\abx@aux@segm{0}{0}{Singh2012498}
\abx@aux@cite{0}{Romo201216}
\abx@aux@segm{0}{0}{Romo201216}
\abx@aux@cite{0}{Hattori20091954}
\abx@aux@segm{0}{0}{Hattori20091954}
\abx@aux@cite{0}{Ding201797}
\abx@aux@segm{0}{0}{Ding201797}
\abx@aux@cite{0}{Guo2016123}
\abx@aux@segm{0}{0}{Guo2016123}
\abx@aux@cite{0}{Ciubotariu201698}
\abx@aux@segm{0}{0}{Ciubotariu201698}
\abx@aux@cite{0}{Lavigne2022}
\abx@aux@segm{0}{0}{Lavigne2022}
\abx@aux@cite{0}{Hou2020}
\abx@aux@segm{0}{0}{Hou2020}
\abx@aux@cite{0}{Liu2019}
\abx@aux@segm{0}{0}{Liu2019}
\abx@aux@cite{0}{Zhang20191060}
\abx@aux@segm{0}{0}{Zhang20191060}
\abx@aux@cite{0}{E2019246}
\abx@aux@segm{0}{0}{E2019246}
\abx@aux@cite{0}{Romero2019581}
\abx@aux@segm{0}{0}{Romero2019581}
\abx@aux@cite{0}{Romero2019518}
\abx@aux@segm{0}{0}{Romero2019518}
\abx@aux@cite{0}{Lei20119}
\abx@aux@segm{0}{0}{Lei20119}
\abx@aux@cite{0}{Qin2011209}
\abx@aux@segm{0}{0}{Qin2011209}
\abx@aux@cite{0}{Ding200866}
\abx@aux@segm{0}{0}{Ding200866}
\abx@aux@cite{0}{Feng2006558}
\abx@aux@segm{0}{0}{Feng2006558}
\abx@aux@cite{0}{Ahmedd2021}
\abx@aux@segm{0}{0}{Ahmedd2021}
\abx@aux@cite{0}{Ahmed2017487}
\abx@aux@segm{0}{0}{Ahmed2017487}
\abx@aux@cite{0}{Ahmed201470}
\abx@aux@segm{0}{0}{Ahmed201470}
\abx@aux@cite{0}{Ahmed201498}
\abx@aux@segm{0}{0}{Ahmed201498}
\abx@aux@cite{0}{Yu20071385}
\abx@aux@segm{0}{0}{Yu20071385}
\abx@aux@cite{0}{Yu20091}
\abx@aux@segm{0}{0}{Yu20091}
\abx@aux@cite{0}{Ahmed2023}
\abx@aux@segm{0}{0}{Ahmed2023}
\abx@aux@cite{0}{Ahmed2021}
\abx@aux@segm{0}{0}{Ahmed2021}
\abx@aux@cite{0}{Ahmed2023}
\abx@aux@segm{0}{0}{Ahmed2023}
\abx@aux@cite{0}{Ahmed2021}
\abx@aux@segm{0}{0}{Ahmed2021}
\@writefile{toc}{\contentsline {chapter}{\numberline {1}Introduction}{1}{chapter.1}\protected@file@percent }
\@writefile{lof}{\addvspace {10\p@ }}
\@writefile{lot}{\addvspace {10\p@ }}
\newlabel{ch:introduction}{{1}{1}{Introduction}{chapter.1}{}}
\newlabel{ch:introduction@cref}{{[chapter][1][]1}{[1][1][]1}}
\newlabel{fig:cavitation_damage}{{1}{2}{Introduction}{chapter.1}{}}
\newlabel{fig:cavitation_damage@cref}{{[chapter][1][]1}{[1][1][]2}}
\@writefile{lof}{\contentsline {figure}{\numberline {1.1}{\ignorespaces Damage mechanism of cavitation}}{2}{figure.1.1}\protected@file@percent }
\@writefile{toc}{\contentsline {section}{\numberline {1.1}Aims and Objectives}{3}{section.1.1}\protected@file@percent }
\@writefile{toc}{\contentsline {section}{\numberline {1.2}Resources}{5}{section.1.2}\protected@file@percent }
\@writefile{toc}{\contentsline {section}{\numberline {1.3}Risks}{6}{section.1.3}\protected@file@percent }
\@writefile{toc}{\contentsline {subsection}{\numberline {1.3.1}Experimental setup complexity risks}{6}{subsection.1.3.1}\protected@file@percent }
\abx@aux@cite{0}{Romo201216}
\abx@aux@segm{0}{0}{Romo201216}
\abx@aux@cite{0}{Kumar2024}
\abx@aux@segm{0}{0}{Kumar2024}
\abx@aux@cite{0}{Kim200685}
\abx@aux@segm{0}{0}{Kim200685}
\abx@aux@cite{0}{Gao2024}
\abx@aux@segm{0}{0}{Gao2024}
\abx@aux@cite{0}{20221xix}
\abx@aux@segm{0}{0}{20221xix}
\abx@aux@cite{0}{Usta2023}
\abx@aux@segm{0}{0}{Usta2023}
\abx@aux@cite{0}{Cheng2023}
\abx@aux@segm{0}{0}{Cheng2023}
\abx@aux@cite{0}{Zheng2022}
\abx@aux@segm{0}{0}{Zheng2022}
\abx@aux@cite{0}{Chen201442}
\abx@aux@segm{0}{0}{Chen201442}
\abx@aux@cite{0}{Mokrane2019}
\abx@aux@segm{0}{0}{Mokrane2019}
\@writefile{toc}{\contentsline {subsection}{\numberline {1.3.2}Health \& Safety risks}{7}{subsection.1.3.2}\protected@file@percent }
\@writefile{toc}{\contentsline {section}{\numberline {1.4}Beneficiaries \& Stakeholders}{7}{section.1.4}\protected@file@percent }
\abx@aux@cite{0}{Franc2004265}
\abx@aux@segm{0}{0}{Franc2004265}
\abx@aux@cite{0}{Yu2024771}
\abx@aux@segm{0}{0}{Yu2024771}
\abx@aux@cite{0}{Niedzwiedzka201671}
\abx@aux@segm{0}{0}{Niedzwiedzka201671}
\abx@aux@cite{0}{Micu2017894}
\abx@aux@segm{0}{0}{Micu2017894}
\abx@aux@cite{0}{GEVARI2020115065}
\abx@aux@segm{0}{0}{GEVARI2020115065}
\abx@aux@cite{0}{Bai2020}
\abx@aux@segm{0}{0}{Bai2020}
\abx@aux@cite{0}{Karimi19861}
\abx@aux@segm{0}{0}{Karimi19861}
\abx@aux@cite{0}{Yu2024771}
\abx@aux@segm{0}{0}{Yu2024771}
\abx@aux@cite{0}{Niedzwiedzka201671}
\abx@aux@segm{0}{0}{Niedzwiedzka201671}
\abx@aux@cite{0}{Micu2017894}
\abx@aux@segm{0}{0}{Micu2017894}
\abx@aux@cite{0}{Meged2002914}
\abx@aux@segm{0}{0}{Meged2002914}
\abx@aux@cite{0}{Hattori2010855}
\abx@aux@segm{0}{0}{Hattori2010855}
\abx@aux@cite{0}{Steller2021}
\abx@aux@segm{0}{0}{Steller2021}
\abx@aux@cite{0}{Steller2020}
\abx@aux@segm{0}{0}{Steller2020}
\abx@aux@cite{0}{Meged2015262}
\abx@aux@segm{0}{0}{Meged2015262}
\abx@aux@cite{0}{FortesPatella2013205}
\abx@aux@segm{0}{0}{FortesPatella2013205}
\abx@aux@cite{0}{KARIMI19871}
\abx@aux@segm{0}{0}{KARIMI19871}
\abx@aux@cite{0}{Meng1995443}
\abx@aux@segm{0}{0}{Meng1995443}
\abx@aux@cite{0}{Berchiche2002601}
\abx@aux@segm{0}{0}{Berchiche2002601}
\abx@aux@cite{0}{Meged2003277}
\abx@aux@segm{0}{0}{Meged2003277}
\abx@aux@cite{0}{Soyama200427}
\abx@aux@segm{0}{0}{Soyama200427}
\abx@aux@cite{0}{Meged200642}
\abx@aux@segm{0}{0}{Meged200642}
\@writefile{toc}{\contentsline {chapter}{\numberline {2}Literature Review}{8}{chapter.2}\protected@file@percent }
\@writefile{lof}{\addvspace {10\p@ }}
\@writefile{lot}{\addvspace {10\p@ }}
\newlabel{ch:literature_review}{{2}{8}{Literature Review}{chapter.2}{}}
\newlabel{ch:literature_review@cref}{{[chapter][2][]2}{[1][8][]8}}
\abx@aux@cite{0}{ASTMG32}
\abx@aux@segm{0}{0}{ASTMG32}
\abx@aux@cite{0}{Bai2020}
\abx@aux@segm{0}{0}{Bai2020}
\abx@aux@cite{0}{Hammitt1980}
\abx@aux@segm{0}{0}{Hammitt1980}
\abx@aux@cite{0}{ASTMG32}
\abx@aux@segm{0}{0}{ASTMG32}
\abx@aux@cite{0}{ASTMG32}
\abx@aux@segm{0}{0}{ASTMG32}
\abx@aux@cite{0}{Endo1967229}
\abx@aux@segm{0}{0}{Endo1967229}
\abx@aux@cite{0}{Kikuchi1985211}
\abx@aux@segm{0}{0}{Kikuchi1985211}
\abx@aux@cite{0}{Me-Bar1996741}
\abx@aux@segm{0}{0}{Me-Bar1996741}
\abx@aux@cite{0}{Abouel-Kasem201221702}
\abx@aux@segm{0}{0}{Abouel-Kasem201221702}
\abx@aux@cite{0}{Wu201775}
\abx@aux@segm{0}{0}{Wu201775}
\@writefile{toc}{\contentsline {section}{\numberline {2.1}Measuring cavitation erosion through ASTM G32}{9}{section.2.1}\protected@file@percent }
\@writefile{toc}{\contentsline {subsection}{\numberline {2.1.1}Effect of distance between sonotrode and specimen}{9}{subsection.2.1.1}\protected@file@percent }
\abx@aux@cite{0}{Singer1979147}
\abx@aux@segm{0}{0}{Singer1979147}
\abx@aux@cite{0}{Ahmed1998119}
\abx@aux@segm{0}{0}{Ahmed1998119}
\abx@aux@cite{0}{Peng2020}
\abx@aux@segm{0}{0}{Peng2020}
\abx@aux@cite{0}{Singer1979147}
\abx@aux@segm{0}{0}{Singer1979147}
\abx@aux@cite{0}{Nagalingam20182883}
\abx@aux@segm{0}{0}{Nagalingam20182883}
\abx@aux@cite{0}{Endo1967229}
\abx@aux@segm{0}{0}{Endo1967229}
\abx@aux@cite{0}{Abouel-Kasem201221702}
\abx@aux@segm{0}{0}{Abouel-Kasem201221702}
\abx@aux@cite{0}{Singer1979147}
\abx@aux@segm{0}{0}{Singer1979147}
\abx@aux@cite{0}{Priyadarshi2023}
\abx@aux@segm{0}{0}{Priyadarshi2023}
\abx@aux@cite{0}{Shin2003117}
\abx@aux@segm{0}{0}{Shin2003117}
\abx@aux@cite{0}{Crook1992766}
\abx@aux@segm{0}{0}{Crook1992766}
\abx@aux@cite{0}{Desai198489}
\abx@aux@segm{0}{0}{Desai198489}
\abx@aux@cite{0}{Youdelis1983379}
\abx@aux@segm{0}{0}{Youdelis1983379}
\abx@aux@cite{0}{Ahmed2021}
\abx@aux@segm{0}{0}{Ahmed2021}
\abx@aux@cite{0}{Crook199427}
\abx@aux@segm{0}{0}{Crook199427}
\abx@aux@cite{0}{Zhang20153579}
\abx@aux@segm{0}{0}{Zhang20153579}
\abx@aux@cite{0}{Ahmed2023}
\abx@aux@segm{0}{0}{Ahmed2023}
\abx@aux@cite{0}{Ahmed20138}
\abx@aux@segm{0}{0}{Ahmed20138}
\abx@aux@cite{0}{Frenk199481}
\abx@aux@segm{0}{0}{Frenk199481}
\abx@aux@cite{0}{Song1997291}
\abx@aux@segm{0}{0}{Song1997291}
\abx@aux@cite{0}{McIntyre1979105}
\abx@aux@segm{0}{0}{McIntyre1979105}
\abx@aux@cite{0}{Xu2024}
\abx@aux@segm{0}{0}{Xu2024}
\abx@aux@cite{0}{Gao2024}
\abx@aux@segm{0}{0}{Gao2024}
\abx@aux@cite{0}{Teles2024}
\abx@aux@segm{0}{0}{Teles2024}
\abx@aux@cite{0}{Sotoodeh2023929}
\abx@aux@segm{0}{0}{Sotoodeh2023929}
\abx@aux@cite{0}{Song2019}
\abx@aux@segm{0}{0}{Song2019}
\abx@aux@cite{0}{Ding201797}
\abx@aux@segm{0}{0}{Ding201797}
\abx@aux@cite{0}{Ashworth1999243}
\abx@aux@segm{0}{0}{Ashworth1999243}
\newlabel{fig:ASTMG32_fig}{{2.1}{10}{Measuring cavitation erosion through ASTM G32}{section.2.1}{}}
\newlabel{fig:ASTMG32_fig@cref}{{[section][1][2]2.1}{[1][9][]10}}
\@writefile{lof}{\contentsline {figure}{\numberline {2.1}{\ignorespaces Important parameters of experimental apparatus from ASTM G32. From \blx@tocontentsinit {0}\cite {ASTMG32}}}{10}{figure.2.1}\protected@file@percent }
\@writefile{toc}{\contentsline {subsection}{\numberline {2.1.2}Effect of liquid temperature}{10}{subsection.2.1.2}\protected@file@percent }
\abx@aux@cite{0}{Opris2007581}
\abx@aux@segm{0}{0}{Opris2007581}
\abx@aux@cite{0}{Engqvist2000219}
\abx@aux@segm{0}{0}{Engqvist2000219}
\abx@aux@cite{0}{Antony198352}
\abx@aux@segm{0}{0}{Antony198352}
\abx@aux@cite{0}{Crook1992766}
\abx@aux@segm{0}{0}{Crook1992766}
\abx@aux@cite{0}{Desai198489}
\abx@aux@segm{0}{0}{Desai198489}
\abx@aux@cite{0}{Yang1995196}
\abx@aux@segm{0}{0}{Yang1995196}
\abx@aux@cite{0}{DeMolVanOtterloo19971225}
\abx@aux@segm{0}{0}{DeMolVanOtterloo19971225}
\abx@aux@cite{0}{Frenk199481}
\abx@aux@segm{0}{0}{Frenk199481}
\abx@aux@cite{0}{Ahmed20138}
\abx@aux@segm{0}{0}{Ahmed20138}
\abx@aux@cite{0}{Yu2007586}
\abx@aux@segm{0}{0}{Yu2007586}
\abx@aux@cite{0}{KRELL2020203138}
\abx@aux@segm{0}{0}{KRELL2020203138}
\abx@aux@cite{0}{Yu2007586}
\abx@aux@segm{0}{0}{Yu2007586}
\abx@aux@cite{0}{KRELL2020203138}
\abx@aux@segm{0}{0}{KRELL2020203138}
\abx@aux@cite{0}{Ahmed20138}
\abx@aux@segm{0}{0}{Ahmed20138}
\abx@aux@cite{0}{Ahmed201470}
\abx@aux@segm{0}{0}{Ahmed201470}
\abx@aux@cite{0}{Ashworth1999243}
\abx@aux@segm{0}{0}{Ashworth1999243}
\abx@aux@cite{0}{Yu20071385}
\abx@aux@segm{0}{0}{Yu20071385}
\abx@aux@cite{0}{Yu2007586}
\abx@aux@segm{0}{0}{Yu2007586}
\abx@aux@cite{0}{Yu20091}
\abx@aux@segm{0}{0}{Yu20091}
\abx@aux@cite{0}{Wang2023}
\abx@aux@segm{0}{0}{Wang2023}
\abx@aux@cite{0}{Szala2022741}
\abx@aux@segm{0}{0}{Szala2022741}
\abx@aux@cite{0}{Mitelea2022967}
\abx@aux@segm{0}{0}{Mitelea2022967}
\abx@aux@cite{0}{Liu2022}
\abx@aux@segm{0}{0}{Liu2022}
\abx@aux@cite{0}{Sun2021}
\abx@aux@segm{0}{0}{Sun2021}
\abx@aux@cite{0}{Szala2021}
\abx@aux@segm{0}{0}{Szala2021}
\abx@aux@cite{0}{Zhang2021}
\abx@aux@segm{0}{0}{Zhang2021}
\abx@aux@cite{0}{Mutascu2019776}
\abx@aux@segm{0}{0}{Mutascu2019776}
\abx@aux@cite{0}{Kovalenko2019175}
\abx@aux@segm{0}{0}{Kovalenko2019175}
\abx@aux@cite{0}{E201890}
\abx@aux@segm{0}{0}{E201890}
\abx@aux@cite{0}{Ciubotariu2016154}
\abx@aux@segm{0}{0}{Ciubotariu2016154}
\abx@aux@cite{0}{Singh201487}
\abx@aux@segm{0}{0}{Singh201487}
\abx@aux@cite{0}{Hattor2014257}
\abx@aux@segm{0}{0}{Hattor2014257}
\abx@aux@cite{0}{Depczynski20131045}
\abx@aux@segm{0}{0}{Depczynski20131045}
\abx@aux@cite{0}{Singh2012498}
\abx@aux@segm{0}{0}{Singh2012498}
\abx@aux@cite{0}{Romo201216}
\abx@aux@segm{0}{0}{Romo201216}
\abx@aux@cite{0}{Hattori20091954}
\abx@aux@segm{0}{0}{Hattori20091954}
\abx@aux@cite{0}{Ding201797}
\abx@aux@segm{0}{0}{Ding201797}
\abx@aux@cite{0}{Guo2016123}
\abx@aux@segm{0}{0}{Guo2016123}
\abx@aux@cite{0}{Ciubotariu201698}
\abx@aux@segm{0}{0}{Ciubotariu201698}
\abx@aux@cite{0}{Lavigne2022}
\abx@aux@segm{0}{0}{Lavigne2022}
\abx@aux@cite{0}{Hou2020}
\abx@aux@segm{0}{0}{Hou2020}
\abx@aux@cite{0}{Liu2019}
\abx@aux@segm{0}{0}{Liu2019}
\abx@aux@cite{0}{Zhang20191060}
\abx@aux@segm{0}{0}{Zhang20191060}
\abx@aux@cite{0}{E2019246}
\abx@aux@segm{0}{0}{E2019246}
\abx@aux@cite{0}{Romero2019581}
\abx@aux@segm{0}{0}{Romero2019581}
\abx@aux@cite{0}{Romero2019518}
\abx@aux@segm{0}{0}{Romero2019518}
\abx@aux@cite{0}{Lei20119}
\abx@aux@segm{0}{0}{Lei20119}
\abx@aux@cite{0}{Qin2011209}
\abx@aux@segm{0}{0}{Qin2011209}
\abx@aux@cite{0}{Ding200866}
\abx@aux@segm{0}{0}{Ding200866}
\abx@aux@cite{0}{Feng2006558}
\abx@aux@segm{0}{0}{Feng2006558}
\abx@aux@cite{0}{Feng2006558}
\abx@aux@segm{0}{0}{Feng2006558}
\abx@aux@cite{0}{Heathcock1981597}
\abx@aux@segm{0}{0}{Heathcock1981597}
\abx@aux@cite{0}{Garzon2005145}
\abx@aux@segm{0}{0}{Garzon2005145}
\abx@aux@cite{0}{Hou2020}
\abx@aux@segm{0}{0}{Hou2020}
\abx@aux@cite{0}{Liu2019}
\abx@aux@segm{0}{0}{Liu2019}
\abx@aux@cite{0}{KRELL2020203138}
\abx@aux@segm{0}{0}{KRELL2020203138}
\abx@aux@cite{0}{KRELL2020203138}
\abx@aux@segm{0}{0}{KRELL2020203138}
\abx@aux@cite{0}{Szala2022741}
\abx@aux@segm{0}{0}{Szala2022741}
\abx@aux@cite{0}{Szala2022741}
\abx@aux@segm{0}{0}{Szala2022741}
\abx@aux@cite{0}{Szala2022741}
\abx@aux@segm{0}{0}{Szala2022741}
\abx@aux@cite{0}{Sun2021}
\abx@aux@segm{0}{0}{Sun2021}
\abx@aux@cite{0}{Sun2021}
\abx@aux@segm{0}{0}{Sun2021}
\abx@aux@cite{0}{Liu2022}
\abx@aux@segm{0}{0}{Liu2022}
\abx@aux@cite{0}{Wang2023}
\abx@aux@segm{0}{0}{Wang2023}
\abx@aux@cite{0}{Wang2023}
\abx@aux@segm{0}{0}{Wang2023}
\abx@aux@cite{0}{Wang2023}
\abx@aux@segm{0}{0}{Wang2023}
\abx@aux@cite{0}{Liu2022}
\abx@aux@segm{0}{0}{Liu2022}
\abx@aux@cite{0}{Zhang2021}
\abx@aux@segm{0}{0}{Zhang2021}
\abx@aux@cite{0}{Zhang2021}
\abx@aux@segm{0}{0}{Zhang2021}
\abx@aux@cite{0}{Zhang2021}
\abx@aux@segm{0}{0}{Zhang2021}
\abx@aux@cite{0}{Zhang20153579}
\abx@aux@segm{0}{0}{Zhang20153579}
\abx@aux@cite{0}{MALAYOGLU2003181}
\abx@aux@segm{0}{0}{MALAYOGLU2003181}
\abx@aux@cite{0}{Mohamed1999195}
\abx@aux@segm{0}{0}{Mohamed1999195}
\@writefile{toc}{\contentsline {section}{\numberline {2.2}Stellite}{11}{section.2.2}\protected@file@percent }
\abx@aux@cite{0}{HUANG2023106170}
\abx@aux@segm{0}{0}{HUANG2023106170}
\abx@aux@cite{0}{Wang2023}
\abx@aux@segm{0}{0}{Wang2023}
\abx@aux@cite{0}{DUBOS2020128812}
\abx@aux@segm{0}{0}{DUBOS2020128812}
\abx@aux@cite{0}{Liu2022}
\abx@aux@segm{0}{0}{Liu2022}
\abx@aux@cite{0}{Rajan19821161}
\abx@aux@segm{0}{0}{Rajan19821161}
\abx@aux@cite{0}{Sun2021}
\abx@aux@segm{0}{0}{Sun2021}
\abx@aux@cite{0}{Tawancy1986337}
\abx@aux@segm{0}{0}{Tawancy1986337}
\abx@aux@cite{0}{Szala2022741}
\abx@aux@segm{0}{0}{Szala2022741}
\abx@aux@cite{0}{DeMolVanOtterloo1997239}
\abx@aux@segm{0}{0}{DeMolVanOtterloo1997239}
\newlabel{fig:stellite_microstructure}{{2.2}{12}{Stellite}{section.2.2}{}}
\newlabel{fig:stellite_microstructure@cref}{{[section][2][2]2.2}{[1][11][]12}}
\@writefile{lof}{\contentsline {figure}{\numberline {2.2}{\ignorespaces Microstructure of Stellite alloys 1, 12, 6, \& 21 due to casting, welding, and HIP'ing. From \blx@tocontentsinit {0}\cite {KRELL2020203138}.}}{12}{figure.2.2}\protected@file@percent }
\@writefile{toc}{\contentsline {subsection}{\numberline {2.2.1}Matrix phase}{12}{subsection.2.2.1}\protected@file@percent }
\abx@aux@cite{0}{Tawancy1986337}
\abx@aux@segm{0}{0}{Tawancy1986337}
\abx@aux@cite{0}{LIU2022294}
\abx@aux@segm{0}{0}{LIU2022294}
\abx@aux@cite{0}{Vacchieri20171100}
\abx@aux@segm{0}{0}{Vacchieri20171100}
\abx@aux@cite{0}{Tawancy1986337}
\abx@aux@segm{0}{0}{Tawancy1986337}
\@writefile{lot}{\contentsline {table}{\numberline {2.1}{\ignorespaces Operating parameters used in ASTM G32 tests on Stellite specimens}}{13}{table.2.1}\protected@file@percent }
\newlabel{tab:stellite}{{2.1}{13}{Operating parameters used in ASTM G32 tests on Stellite specimens}{table.2.1}{}}
\newlabel{tab:stellite@cref}{{[table][1][2]2.1}{[1][11][]13}}
\abx@aux@cite{0}{Desai198489}
\abx@aux@segm{0}{0}{Desai198489}
\abx@aux@cite{0}{DeMolVanOtterloo19971225}
\abx@aux@segm{0}{0}{DeMolVanOtterloo19971225}
\abx@aux@cite{0}{kapoor2013microstructure}
\abx@aux@segm{0}{0}{kapoor2013microstructure}
\abx@aux@cite{0}{Szala2021}
\abx@aux@segm{0}{0}{Szala2021}
\abx@aux@cite{0}{Zhang20153579}
\abx@aux@segm{0}{0}{Zhang20153579}
\abx@aux@cite{0}{Mohamed1999195}
\abx@aux@segm{0}{0}{Mohamed1999195}
\abx@aux@cite{0}{Singh201487}
\abx@aux@segm{0}{0}{Singh201487}
\abx@aux@cite{0}{Hattor2014257}
\abx@aux@segm{0}{0}{Hattor2014257}
\abx@aux@cite{0}{Depczynski20131045}
\abx@aux@segm{0}{0}{Depczynski20131045}
\abx@aux@cite{0}{DeBrouwer1966141}
\abx@aux@segm{0}{0}{DeBrouwer1966141}
\abx@aux@cite{0}{Crook1990446}
\abx@aux@segm{0}{0}{Crook1990446}
\abx@aux@cite{0}{KRELL2020203138}
\abx@aux@segm{0}{0}{KRELL2020203138}
\abx@aux@cite{0}{Ahmed2021}
\abx@aux@segm{0}{0}{Ahmed2021}
\abx@aux@cite{0}{Ahmed2017487}
\abx@aux@segm{0}{0}{Ahmed2017487}
\abx@aux@cite{0}{Ahmed201470}
\abx@aux@segm{0}{0}{Ahmed201470}
\abx@aux@cite{0}{Ahmed201498}
\abx@aux@segm{0}{0}{Ahmed201498}
\abx@aux@cite{0}{Yu20071385}
\abx@aux@segm{0}{0}{Yu20071385}
\abx@aux@cite{0}{Yu20091}
\abx@aux@segm{0}{0}{Yu20091}
\abx@aux@cite{0}{Ahmed20138}
\abx@aux@segm{0}{0}{Ahmed20138}
\abx@aux@cite{0}{Ahmed201470}
\abx@aux@segm{0}{0}{Ahmed201470}
\abx@aux@cite{0}{Ashworth1999243}
\abx@aux@segm{0}{0}{Ashworth1999243}
\abx@aux@cite{0}{Yu20071385}
\abx@aux@segm{0}{0}{Yu20071385}
\abx@aux@cite{0}{Ahmed2023}
\abx@aux@segm{0}{0}{Ahmed2023}
\abx@aux@cite{0}{Ahmed2021}
\abx@aux@segm{0}{0}{Ahmed2021}
\@writefile{toc}{\contentsline {subsection}{\numberline {2.2.2}Carbide phase}{14}{subsection.2.2.2}\protected@file@percent }
\@writefile{toc}{\contentsline {subsection}{\numberline {2.2.3}Blended Stellite Alloys}{14}{subsection.2.2.3}\protected@file@percent }
\abx@aux@cite{0}{Atkinson20002981}
\abx@aux@segm{0}{0}{Atkinson20002981}
\abx@aux@cite{0}{Ahmed2023}
\abx@aux@segm{0}{0}{Ahmed2023}
\abx@aux@cite{0}{Yu2007}
\abx@aux@segm{0}{0}{Yu2007}
\abx@aux@cite{0}{Ahmed2021}
\abx@aux@segm{0}{0}{Ahmed2021}
\abx@aux@cite{0}{Ahmed2023}
\abx@aux@segm{0}{0}{Ahmed2023}
\abx@aux@cite{0}{Ahmed2021}
\abx@aux@segm{0}{0}{Ahmed2021}
\abx@aux@cite{0}{Li19872831}
\abx@aux@segm{0}{0}{Li19872831}
\abx@aux@cite{0}{Ashworth2000351}
\abx@aux@segm{0}{0}{Ashworth2000351}
\abx@aux@cite{0}{Atkinson1991}
\abx@aux@segm{0}{0}{Atkinson1991}
\abx@aux@cite{0}{Li19931345}
\abx@aux@segm{0}{0}{Li19931345}
\abx@aux@cite{0}{Li19891645}
\abx@aux@segm{0}{0}{Li19891645}
\abx@aux@cite{0}{Speight1964683}
\abx@aux@segm{0}{0}{Speight1964683}
\abx@aux@cite{0}{Coble19704798}
\abx@aux@segm{0}{0}{Coble19704798}
\abx@aux@cite{0}{Ahmed2023}
\abx@aux@segm{0}{0}{Ahmed2023}
\abx@aux@cite{0}{Ahmed2021}
\abx@aux@segm{0}{0}{Ahmed2021}
\ACRO{total-barriers}{1}
\ACRO{usage}{lol=={0}||www=={0}||wys=={0}||woodchuck=={0}||opt=={0}||jau=={0}}
\ACRO{pages}{}
\ACRO{barriers}{}
\ACRO{readaux}
\abx@aux@read@bbl@mdfivesum{8E0EF515886BFE567B91E5DC091C048E}
\abx@aux@read@bblrerun
\abx@aux@defaultrefcontext{0}{knapp1970cavitation}{none/global//global/global}
\abx@aux@defaultrefcontext{0}{brennen1995cavitation}{none/global//global/global}
\abx@aux@defaultrefcontext{0}{Lauterborn_Bolle_1975}{none/global//global/global}
\abx@aux@defaultrefcontext{0}{doi:10.1126/science.253.5026.1397}{none/global//global/global}
\abx@aux@defaultrefcontext{0}{10.1115/1.4049933}{none/global//global/global}
\abx@aux@defaultrefcontext{0}{XIONG2022105899}{none/global//global/global}
\abx@aux@defaultrefcontext{0}{Franc2004265}{none/global//global/global}
\abx@aux@defaultrefcontext{0}{karimi1986cavitation}{none/global//global/global}
\abx@aux@defaultrefcontext{0}{Pereira1998}{none/global//global/global}
\abx@aux@defaultrefcontext{0}{Zhang20153579}{none/global//global/global}
\abx@aux@defaultrefcontext{0}{Ahmed2023}{none/global//global/global}
\abx@aux@defaultrefcontext{0}{Ahmed20138}{none/global//global/global}
\abx@aux@defaultrefcontext{0}{Frenk199481}{none/global//global/global}
\abx@aux@defaultrefcontext{0}{Song1997291}{none/global//global/global}
\abx@aux@defaultrefcontext{0}{McIntyre1979105}{none/global//global/global}
\abx@aux@defaultrefcontext{0}{Xu2024}{none/global//global/global}
\abx@aux@defaultrefcontext{0}{Gao2024}{none/global//global/global}
\abx@aux@defaultrefcontext{0}{Teles2024}{none/global//global/global}
\abx@aux@defaultrefcontext{0}{Sotoodeh2023929}{none/global//global/global}
\abx@aux@defaultrefcontext{0}{Song2019}{none/global//global/global}
\abx@aux@defaultrefcontext{0}{Ding201797}{none/global//global/global}
\abx@aux@defaultrefcontext{0}{Ashworth1999243}{none/global//global/global}
\abx@aux@defaultrefcontext{0}{Opris2007581}{none/global//global/global}
\abx@aux@defaultrefcontext{0}{Engqvist2000219}{none/global//global/global}
\abx@aux@defaultrefcontext{0}{Antony198352}{none/global//global/global}
\abx@aux@defaultrefcontext{0}{Crook1992766}{none/global//global/global}
\abx@aux@defaultrefcontext{0}{Desai198489}{none/global//global/global}
\abx@aux@defaultrefcontext{0}{Yang1995196}{none/global//global/global}
\abx@aux@defaultrefcontext{0}{DeMolVanOtterloo19971225}{none/global//global/global}
\abx@aux@defaultrefcontext{0}{Yu2007586}{none/global//global/global}
\abx@aux@defaultrefcontext{0}{KRELL2020203138}{none/global//global/global}
\abx@aux@defaultrefcontext{0}{Wang2023}{none/global//global/global}
\abx@aux@defaultrefcontext{0}{Szala2022741}{none/global//global/global}
\abx@aux@defaultrefcontext{0}{Mitelea2022967}{none/global//global/global}
\abx@aux@defaultrefcontext{0}{Liu2022}{none/global//global/global}
\abx@aux@defaultrefcontext{0}{Sun2021}{none/global//global/global}
\abx@aux@defaultrefcontext{0}{Szala2021}{none/global//global/global}
\abx@aux@defaultrefcontext{0}{Zhang2021}{none/global//global/global}
\abx@aux@defaultrefcontext{0}{Mutascu2019776}{none/global//global/global}
\abx@aux@defaultrefcontext{0}{Kovalenko2019175}{none/global//global/global}
\abx@aux@defaultrefcontext{0}{E201890}{none/global//global/global}
\abx@aux@defaultrefcontext{0}{Ciubotariu2016154}{none/global//global/global}
\abx@aux@defaultrefcontext{0}{Singh201487}{none/global//global/global}
\abx@aux@defaultrefcontext{0}{Hattor2014257}{none/global//global/global}
\abx@aux@defaultrefcontext{0}{Depczynski20131045}{none/global//global/global}
\abx@aux@defaultrefcontext{0}{Singh2012498}{none/global//global/global}
\abx@aux@defaultrefcontext{0}{Romo201216}{none/global//global/global}
\abx@aux@defaultrefcontext{0}{Hattori20091954}{none/global//global/global}
\abx@aux@defaultrefcontext{0}{Guo2016123}{none/global//global/global}
\abx@aux@defaultrefcontext{0}{Ciubotariu201698}{none/global//global/global}
\abx@aux@defaultrefcontext{0}{Lavigne2022}{none/global//global/global}
\abx@aux@defaultrefcontext{0}{Hou2020}{none/global//global/global}
\abx@aux@defaultrefcontext{0}{Liu2019}{none/global//global/global}
\abx@aux@defaultrefcontext{0}{Zhang20191060}{none/global//global/global}
\abx@aux@defaultrefcontext{0}{E2019246}{none/global//global/global}
\abx@aux@defaultrefcontext{0}{Romero2019581}{none/global//global/global}
\abx@aux@defaultrefcontext{0}{Romero2019518}{none/global//global/global}
\abx@aux@defaultrefcontext{0}{Lei20119}{none/global//global/global}
\abx@aux@defaultrefcontext{0}{Qin2011209}{none/global//global/global}
\abx@aux@defaultrefcontext{0}{Ding200866}{none/global//global/global}
\abx@aux@defaultrefcontext{0}{Feng2006558}{none/global//global/global}
\abx@aux@defaultrefcontext{0}{Ahmed2021}{none/global//global/global}
\abx@aux@defaultrefcontext{0}{Ahmed2017487}{none/global//global/global}
\abx@aux@defaultrefcontext{0}{Ahmed201470}{none/global//global/global}
\abx@aux@defaultrefcontext{0}{Ahmed201498}{none/global//global/global}
\abx@aux@defaultrefcontext{0}{Yu20071385}{none/global//global/global}
\abx@aux@defaultrefcontext{0}{Yu20091}{none/global//global/global}
\abx@aux@defaultrefcontext{0}{Kumar2024}{none/global//global/global}
\abx@aux@defaultrefcontext{0}{Kim200685}{none/global//global/global}
\abx@aux@defaultrefcontext{0}{20221xix}{none/global//global/global}
\abx@aux@defaultrefcontext{0}{Usta2023}{none/global//global/global}
\abx@aux@defaultrefcontext{0}{Cheng2023}{none/global//global/global}
\abx@aux@defaultrefcontext{0}{Zheng2022}{none/global//global/global}
\abx@aux@defaultrefcontext{0}{Chen201442}{none/global//global/global}
\abx@aux@defaultrefcontext{0}{Mokrane2019}{none/global//global/global}
\abx@aux@defaultrefcontext{0}{Yu2024771}{none/global//global/global}
\abx@aux@defaultrefcontext{0}{Niedzwiedzka201671}{none/global//global/global}
\abx@aux@defaultrefcontext{0}{Micu2017894}{none/global//global/global}
\abx@aux@defaultrefcontext{0}{GEVARI2020115065}{none/global//global/global}
\abx@aux@defaultrefcontext{0}{Bai2020}{none/global//global/global}
\abx@aux@defaultrefcontext{0}{Karimi19861}{none/global//global/global}
\abx@aux@defaultrefcontext{0}{Meged2002914}{none/global//global/global}
\abx@aux@defaultrefcontext{0}{Hattori2010855}{none/global//global/global}
\abx@aux@defaultrefcontext{0}{Steller2021}{none/global//global/global}
\abx@aux@defaultrefcontext{0}{Steller2020}{none/global//global/global}
\abx@aux@defaultrefcontext{0}{Meged2015262}{none/global//global/global}
\abx@aux@defaultrefcontext{0}{FortesPatella2013205}{none/global//global/global}
\abx@aux@defaultrefcontext{0}{KARIMI19871}{none/global//global/global}
\abx@aux@defaultrefcontext{0}{Meng1995443}{none/global//global/global}
\abx@aux@defaultrefcontext{0}{Berchiche2002601}{none/global//global/global}
\abx@aux@defaultrefcontext{0}{Meged2003277}{none/global//global/global}
\abx@aux@defaultrefcontext{0}{Soyama200427}{none/global//global/global}
\abx@aux@defaultrefcontext{0}{Meged200642}{none/global//global/global}
\abx@aux@defaultrefcontext{0}{ASTMG32}{none/global//global/global}
\abx@aux@defaultrefcontext{0}{Hammitt1980}{none/global//global/global}
\abx@aux@defaultrefcontext{0}{Endo1967229}{none/global//global/global}
\abx@aux@defaultrefcontext{0}{Kikuchi1985211}{none/global//global/global}
\abx@aux@defaultrefcontext{0}{Me-Bar1996741}{none/global//global/global}
\abx@aux@defaultrefcontext{0}{Abouel-Kasem201221702}{none/global//global/global}
\abx@aux@defaultrefcontext{0}{Wu201775}{none/global//global/global}
\abx@aux@defaultrefcontext{0}{Singer1979147}{none/global//global/global}
\abx@aux@defaultrefcontext{0}{Ahmed1998119}{none/global//global/global}
\abx@aux@defaultrefcontext{0}{Peng2020}{none/global//global/global}
\abx@aux@defaultrefcontext{0}{Nagalingam20182883}{none/global//global/global}
\abx@aux@defaultrefcontext{0}{Priyadarshi2023}{none/global//global/global}
\abx@aux@defaultrefcontext{0}{Shin2003117}{none/global//global/global}
\abx@aux@defaultrefcontext{0}{Youdelis1983379}{none/global//global/global}
\abx@aux@defaultrefcontext{0}{Crook199427}{none/global//global/global}
\abx@aux@defaultrefcontext{0}{Heathcock1981597}{none/global//global/global}
\abx@aux@defaultrefcontext{0}{MALAYOGLU2003181}{none/global//global/global}
\abx@aux@defaultrefcontext{0}{Mohamed1999195}{none/global//global/global}
\abx@aux@defaultrefcontext{0}{HUANG2023106170}{none/global//global/global}
\abx@aux@defaultrefcontext{0}{DUBOS2020128812}{none/global//global/global}
\abx@aux@defaultrefcontext{0}{Rajan19821161}{none/global//global/global}
\abx@aux@defaultrefcontext{0}{Tawancy1986337}{none/global//global/global}
\abx@aux@defaultrefcontext{0}{DeMolVanOtterloo1997239}{none/global//global/global}
\abx@aux@defaultrefcontext{0}{LIU2022294}{none/global//global/global}
\abx@aux@defaultrefcontext{0}{Vacchieri20171100}{none/global//global/global}
\abx@aux@defaultrefcontext{0}{kapoor2013microstructure}{none/global//global/global}
\abx@aux@defaultrefcontext{0}{DeBrouwer1966141}{none/global//global/global}
\abx@aux@defaultrefcontext{0}{Crook1990446}{none/global//global/global}
\abx@aux@defaultrefcontext{0}{Atkinson20002981}{none/global//global/global}
\abx@aux@defaultrefcontext{0}{Yu2007}{none/global//global/global}
\abx@aux@defaultrefcontext{0}{Li19872831}{none/global//global/global}
\abx@aux@defaultrefcontext{0}{Ashworth2000351}{none/global//global/global}
\abx@aux@defaultrefcontext{0}{Atkinson1991}{none/global//global/global}
\abx@aux@defaultrefcontext{0}{Li19931345}{none/global//global/global}
\abx@aux@defaultrefcontext{0}{Li19891645}{none/global//global/global}
\abx@aux@defaultrefcontext{0}{Speight1964683}{none/global//global/global}
\abx@aux@defaultrefcontext{0}{Coble19704798}{none/global//global/global}
\gdef \@abspage@last{34}
