\relax 
\providecommand\hyper@newdestlabel[2]{}
\abx@aux@refcontext{nty/global//global/global}
\providecommand\HyperFirstAtBeginDocument{\AtBeginDocument}
\HyperFirstAtBeginDocument{\ifx\hyper@anchor\@undefined
\global\let\oldcontentsline\contentsline
\gdef\contentsline#1#2#3#4{\oldcontentsline{#1}{#2}{#3}}
\global\let\oldnewlabel\newlabel
\gdef\newlabel#1#2{\newlabelxx{#1}#2}
\gdef\newlabelxx#1#2#3#4#5#6{\oldnewlabel{#1}{{#2}{#3}}}
\AtEndDocument{\ifx\hyper@anchor\@undefined
\let\contentsline\oldcontentsline
\let\newlabel\oldnewlabel
\fi}
\fi}
\global\let\hyper@last\relax 
\gdef\HyperFirstAtBeginDocument#1{#1}
\providecommand\HyField@AuxAddToFields[1]{}
\providecommand\HyField@AuxAddToCoFields[2]{}
\providecommand\@newglossary[4]{}
\@newglossary{main}{glg}{gls}{glo}
\@newglossary{acronym}{alg}{acr}{acn}
\providecommand\@gls@reference[3]{}
\abx@aux@cite{0}{Franc2004265}
\abx@aux@segm{0}{0}{Franc2004265}
\abx@aux@cite{0}{GEVARI2020115065}
\abx@aux@segm{0}{0}{GEVARI2020115065}
\abx@aux@cite{0}{Romo201216}
\abx@aux@segm{0}{0}{Romo201216}
\abx@aux@cite{0}{Kumar2024}
\abx@aux@segm{0}{0}{Kumar2024}
\abx@aux@cite{0}{Kim200685}
\abx@aux@segm{0}{0}{Kim200685}
\abx@aux@cite{0}{Gao2024}
\abx@aux@segm{0}{0}{Gao2024}
\abx@aux@cite{0}{20221xix}
\abx@aux@segm{0}{0}{20221xix}
\abx@aux@cite{0}{Usta2023}
\abx@aux@segm{0}{0}{Usta2023}
\abx@aux@cite{0}{Cheng2023}
\abx@aux@segm{0}{0}{Cheng2023}
\abx@aux@category{cited}{Cheng2023}
\abx@aux@cite{0}{Zheng2022}
\abx@aux@segm{0}{0}{Zheng2022}
\abx@aux@cite{0}{Chen201442}
\abx@aux@segm{0}{0}{Chen201442}
\abx@aux@cite{0}{Mokrane2019}
\abx@aux@segm{0}{0}{Mokrane2019}
\abx@aux@category{cited}{Chen201442}
\abx@aux@cite{0}{Shin2003117}
\abx@aux@segm{0}{0}{Shin2003117}
\abx@aux@cite{0}{Crook1992766}
\abx@aux@segm{0}{0}{Crook1992766}
\abx@aux@cite{0}{Desai198489}
\abx@aux@segm{0}{0}{Desai198489}
\abx@aux@cite{0}{Youdelis1983379}
\abx@aux@segm{0}{0}{Youdelis1983379}
\abx@aux@category{cited}{Crook1992766}
\abx@aux@category{cited}{Desai198489}
\abx@aux@cite{0}{Ahmed2021}
\abx@aux@segm{0}{0}{Ahmed2021}
\abx@aux@cite{0}{Crook199427}
\abx@aux@segm{0}{0}{Crook199427}
\abx@aux@category{cited}{Ahmed2021}
\abx@aux@category{cited}{Crook199427}
\@writefile{toc}{\contentsline {chapter}{\numberline {1}Project Proposal}{1}{chapter.1}\protected@file@percent }
\@writefile{lof}{\addvspace {10\p@ }}
\@writefile{lot}{\addvspace {10\p@ }}
\@writefile{lof}{\contentsline {xchapter}{Project Proposal}{1}{chapter.1}\protected@file@percent }
\@writefile{lot}{\contentsline {xchapter}{Project Proposal}{1}{chapter.1}\protected@file@percent }
\abx@aux@cite{0}{Zhang20153579}
\abx@aux@segm{0}{0}{Zhang20153579}
\abx@aux@cite{0}{Ahmed2023}
\abx@aux@segm{0}{0}{Ahmed2023}
\abx@aux@cite{0}{Ahmed20138}
\abx@aux@segm{0}{0}{Ahmed20138}
\abx@aux@cite{0}{Frenk199481}
\abx@aux@segm{0}{0}{Frenk199481}
\abx@aux@cite{0}{Song1997291}
\abx@aux@segm{0}{0}{Song1997291}
\abx@aux@category{cited}{Ahmed2023}
\abx@aux@category{cited}{Ahmed20138}
\abx@aux@cite{0}{McIntyre1979105}
\abx@aux@segm{0}{0}{McIntyre1979105}
\abx@aux@cite{0}{Xu2024}
\abx@aux@segm{0}{0}{Xu2024}
\abx@aux@cite{0}{Gao2024}
\abx@aux@segm{0}{0}{Gao2024}
\abx@aux@cite{0}{Teles2024}
\abx@aux@segm{0}{0}{Teles2024}
\abx@aux@cite{0}{Sotoodeh2023929}
\abx@aux@segm{0}{0}{Sotoodeh2023929}
\abx@aux@cite{0}{Song2019}
\abx@aux@segm{0}{0}{Song2019}
\abx@aux@cite{0}{Ding201797}
\abx@aux@segm{0}{0}{Ding201797}
\abx@aux@category{cited}{Ding201797}
\abx@aux@cite{0}{Ashworth1999243}
\abx@aux@segm{0}{0}{Ashworth1999243}
\abx@aux@category{cited}{Ashworth1999243}
\abx@aux@cite{0}{Ahmed20138}
\abx@aux@segm{0}{0}{Ahmed20138}
\abx@aux@cite{0}{Ahmed201470}
\abx@aux@segm{0}{0}{Ahmed201470}
\abx@aux@cite{0}{Ashworth1999243}
\abx@aux@segm{0}{0}{Ashworth1999243}
\abx@aux@cite{0}{Yu20071385}
\abx@aux@segm{0}{0}{Yu20071385}
\abx@aux@category{cited}{Ahmed20138}
\abx@aux@category{cited}{Ahmed201470}
\abx@aux@category{cited}{Ashworth1999243}
\abx@aux@cite{0}{Yu2007586}
\abx@aux@segm{0}{0}{Yu2007586}
\abx@aux@cite{0}{Yu20091}
\abx@aux@segm{0}{0}{Yu20091}
\abx@aux@cite{0}{HUANG2023106170}
\abx@aux@segm{0}{0}{HUANG2023106170}
\abx@aux@cite{0}{DUBOS2020128812}
\abx@aux@segm{0}{0}{DUBOS2020128812}
\abx@aux@cite{0}{Rajan19821161}
\abx@aux@segm{0}{0}{Rajan19821161}
\abx@aux@cite{0}{Tawancy1986337}
\abx@aux@segm{0}{0}{Tawancy1986337}
\abx@aux@cite{0}{Tawancy1986337}
\abx@aux@segm{0}{0}{Tawancy1986337}
\abx@aux@cite{0}{LIU2022294}
\abx@aux@segm{0}{0}{LIU2022294}
\abx@aux@cite{0}{Vacchieri20171100}
\abx@aux@segm{0}{0}{Vacchieri20171100}
\abx@aux@cite{0}{Tawancy1986337}
\abx@aux@segm{0}{0}{Tawancy1986337}
\newlabel{Bibliography}{{1}{3}{Project Proposal}{chapter.1}{}}
